[
  {
    "fields": {
      "date_joined": "2016-03-07T14:30:53.456Z",
      "avatar": null,
      "last_login": null,
      "user_permissions": [],
      "first_name": "Admin",
      "username": "kms",
      "last_name": "",
      "mobile": "",
      "password": "pbkdf2_sha256$20000$A1fcOsLaVdKn$KTvFc+dOtvCZwZXp2g2sg+CE2pW+9jjsmwHlZK6xlGk=",
      "is_staff": true,
      "skype": "",
      "groups": [1],
      "is_superuser": true,
      "about": "",
      "is_active": true,
      "phone": "",
      "email": "kms@kms.com"
    },
    "model": "kmsuser.user",
    "pk": 1
  },
  {
    "fields": {
      "date_joined": "2016-03-07T14:32:25.684Z",
      "avatar": null,
      "last_login": null,
      "user_permissions": [],
      "first_name": "Aliaksandr",
      "username": "akarpovich",
      "last_name": "Karpovich",
      "mobile": "",
      "password": "pbkdf2_sha256$20000$A1fcOsLaVdKn$KTvFc+dOtvCZwZXp2g2sg+CE2pW+9jjsmwHlZK6xlGk=",
      "is_staff": true,
      "skype": "",
      "groups": [1],
      "is_superuser": true,
      "about": "",
      "is_active": true,
      "phone": "",
      "email": ""
    },
    "model": "kmsuser.user",
    "pk": 2
  },
  {
    "fields": {
      "date_joined": "2016-03-07T14:32:25.684Z",
      "avatar": null,
      "last_login": null,
      "user_permissions": [],
      "first_name": "Siarhei",
      "username": "spashkevich",
      "last_name": "Pashkevich",
      "mobile": "",
      "password": "pbkdf2_sha256$20000$A1fcOsLaVdKn$KTvFc+dOtvCZwZXp2g2sg+CE2pW+9jjsmwHlZK6xlGk=",
      "is_staff": true,
      "skype": "",
      "groups": [1],
      "is_superuser": true,
      "about": "",
      "is_active": true,
      "phone": "",
      "email": ""
    },
    "model": "kmsuser.user",
    "pk": 3
  },
  {
    "fields": {
      "date_joined": "2016-03-07T14:32:25.684Z",
      "avatar": null,
      "last_login": null,
      "user_permissions": [],
      "first_name": "Darya",
      "username": "dhaidzina",
      "last_name": "Haidzina",
      "mobile": "",
      "password": "pbkdf2_sha256$20000$A1fcOsLaVdKn$KTvFc+dOtvCZwZXp2g2sg+CE2pW+9jjsmwHlZK6xlGk=",
      "is_staff": true,
      "skype": "",
      "groups": [1],
      "is_superuser": true,
      "about": "",
      "is_active": true,
      "phone": "",
      "email": ""
    },
    "model": "kmsuser.user",
    "pk": 4
  },
  {
    "fields": {
      "date_joined": "2016-03-07T14:32:25.684Z",
      "avatar": null,
      "last_login": null,
      "user_permissions": [],
      "first_name": "Valentin",
      "username": "vparshikov",
      "last_name": "Parshikov",
      "mobile": "",
      "password": "pbkdf2_sha256$20000$A1fcOsLaVdKn$KTvFc+dOtvCZwZXp2g2sg+CE2pW+9jjsmwHlZK6xlGk=",
      "is_staff": true,
      "skype": "",
      "groups": [1],
      "is_superuser": true,
      "about": "",
      "is_active": true,
      "phone": "",
      "email": ""
    },
    "model": "kmsuser.user",
    "pk": 5
  },
  {
    "fields": {
      "date_joined": "2016-03-07T14:32:25.684Z",
      "avatar": null,
      "last_login": null,
      "user_permissions": [],
      "first_name": "Pavel",
      "username": "pshpak",
      "last_name": "Shpak",
      "mobile": "",
      "password": "pbkdf2_sha256$20000$A1fcOsLaVdKn$KTvFc+dOtvCZwZXp2g2sg+CE2pW+9jjsmwHlZK6xlGk=",
      "is_staff": true,
      "skype": "",
      "groups": [1],
      "is_superuser": true,
      "about": "",
      "is_active": true,
      "phone": "",
      "email": ""
    },
    "model": "kmsuser.user",
    "pk": 6
  },
  {
    "fields": {
      "level": 56,
      "user": 2,
      "skill": 2
    },
    "model": "kmsuser.userskill",
    "pk": 1
  },
  {
    "fields": {
      "level": 56,
      "user": 2,
      "skill": 3
    },
    "model": "kmsuser.userskill",
    "pk": 2
  },
  {
    "fields": {
      "level": 91,
      "user": 1,
      "skill": 1
    },
    "model": "kmsuser.userskill",
    "pk": 3
  }
]